\relax 
\providecommand\hyper@newdestlabel[2]{}
\providecommand\BKM@entry[2]{}
\providecommand\HyperFirstAtBeginDocument{\AtBeginDocument}
\HyperFirstAtBeginDocument{\ifx\hyper@anchor\@undefined
\global\let\oldcontentsline\contentsline
\gdef\contentsline#1#2#3#4{\oldcontentsline{#1}{#2}{#3}}
\global\let\oldnewlabel\newlabel
\gdef\newlabel#1#2{\newlabelxx{#1}#2}
\gdef\newlabelxx#1#2#3#4#5#6{\oldnewlabel{#1}{{#2}{#3}}}
\AtEndDocument{\ifx\hyper@anchor\@undefined
\let\contentsline\oldcontentsline
\let\newlabel\oldnewlabel
\fi}
\fi}
\global\let\hyper@last\relax 
\gdef\HyperFirstAtBeginDocument#1{#1}
\providecommand\HyField@AuxAddToFields[1]{}
\providecommand\HyField@AuxAddToCoFields[2]{}
\bibstyle{biblatex}
\bibdata{Journal-blx,hp2}
\citation{biblatex-control}
\abx@aux@refcontext{nyt/global//global/global}
\BKM@entry{id=1,dest={73656374696F6E2E31},srcline={247}}{506570746964652D616E746962696F74696320636F6E6A75676174657320666F7220746172676574656420647275672064656C6976657279}
\BKM@entry{id=2,dest={73656374696F6E2E32},srcline={252}}{576879}
\BKM@entry{id=3,dest={73756273656374696F6E2E322E31},srcline={253}}{496E74726F20746F2074686520746F706963}
\citation{Parra2017}
\abx@aux@cite{Parra2017}
\abx@aux@segm{0}{0}{Parra2017}
\citation{Parra2017}
\abx@aux@segm{0}{0}{Parra2017}
\BKM@entry{id=4,dest={73756273656374696F6E2E322E32},srcline={276}}{5374726F6E6720437269746572656F6E}
\@writefile{toc}{\boolfalse {citerequest}\boolfalse {citetracker}\boolfalse {pagetracker}\boolfalse {backtracker}\relax }
\@writefile{lof}{\boolfalse {citerequest}\boolfalse {citetracker}\boolfalse {pagetracker}\boolfalse {backtracker}\relax }
\@writefile{lot}{\boolfalse {citerequest}\boolfalse {citetracker}\boolfalse {pagetracker}\boolfalse {backtracker}\relax }
\@writefile{toc}{\defcounter {refsection}{0}\relax }\@writefile{toc}{\contentsline {section}{\numberline {1}Peptide-antibiotic conjugates for targeted drug delivery}{1}{section.1}}
\@writefile{toc}{\defcounter {refsection}{0}\relax }\@writefile{toc}{\contentsline {section}{\numberline {2}Why}{1}{section.2}}
\@writefile{toc}{\defcounter {refsection}{0}\relax }\@writefile{toc}{\contentsline {subsection}{\numberline {2.1}Intro to the topic}{1}{subsection.2.1}}
\BKM@entry{id=5,dest={73756273656374696F6E2E322E33},srcline={284}}{5374617465206F6620746865206172742C2053696D696C617220506F6A656374732E204542492F54554848}
\@writefile{lof}{\defcounter {refsection}{0}\relax }\@writefile{lof}{\contentsline {figure}{\numberline {1}{\ignorespaces Sample figure 1 Image Source: \parencite {Parra2017}.\relax }}{2}{figure.caption.1}}
\providecommand*\caption@xref[2]{\@setref\relax\@undefined{#1}}
\newlabel{ch1fig1}{{1}{2}{Sample figure 1 Image Source: \parencite {Parra2017}.\relax }{figure.caption.1}{}}
\@writefile{toc}{\defcounter {refsection}{0}\relax }\@writefile{toc}{\contentsline {subsection}{\numberline {2.2}Strong Critereon}{2}{subsection.2.2}}
\@writefile{toc}{\defcounter {refsection}{0}\relax }\@writefile{toc}{\contentsline {subsection}{\numberline {2.3}State of the art, Similar Pojects. EBI/TUHH}{2}{subsection.2.3}}
\BKM@entry{id=6,dest={73756273656374696F6E2E322E34},srcline={292}}{44656C6976657261626C65732F506170657273}
\@writefile{toc}{\defcounter {refsection}{0}\relax }\@writefile{toc}{\contentsline {subsection}{\numberline {2.4}Deliverables/Papers}{3}{subsection.2.4}}
\BKM@entry{id=7,dest={73656374696F6E2E33},srcline={372}}{49646561205175616C696669636174696F6E}
\BKM@entry{id=8,dest={73756273656374696F6E2E332E31},srcline={374}}{44657461696C656420696E74726F2F646576656C6F706D656E7420686973746F727920746F2069646561}
\@writefile{toc}{\defcounter {refsection}{0}\relax }\@writefile{toc}{\contentsline {section}{\numberline {3}Idea Qualification}{5}{section.3}}
\@writefile{toc}{\defcounter {refsection}{0}\relax }\@writefile{toc}{\contentsline {subsection}{\numberline {3.1}Detailed intro/development history to idea}{5}{subsection.3.1}}
\citation{Parra2017}
\abx@aux@segm{0}{0}{Parra2017}
\citation{Parra2017}
\abx@aux@segm{0}{0}{Parra2017}
\BKM@entry{id=9,dest={73756273656374696F6E2E332E32},srcline={388}}{436F6D70617261626C6520737475646965732F6D6574686F6473}
\citation{Parra2017}
\abx@aux@segm{0}{0}{Parra2017}
\citation{Parra2017}
\abx@aux@segm{0}{0}{Parra2017}
\BKM@entry{id=10,dest={73756273656374696F6E2E332E33},srcline={402}}{57687920646F657320746869732069646561206D65657420746865206F626A656374697665}
\@writefile{lof}{\defcounter {refsection}{0}\relax }\@writefile{lof}{\contentsline {figure}{\numberline {2}{\ignorespaces Sample figure 2 Image Source: \parencite {Parra2017}.\relax }}{6}{figure.caption.2}}
\newlabel{ch1fig1}{{2}{6}{Sample figure 2 Image Source: \parencite {Parra2017}.\relax }{figure.caption.2}{}}
\@writefile{toc}{\defcounter {refsection}{0}\relax }\@writefile{toc}{\contentsline {subsection}{\numberline {3.2}Comparable studies/methods}{6}{subsection.3.2}}
\@writefile{toc}{\defcounter {refsection}{0}\relax }\@writefile{toc}{\contentsline {subsection}{\numberline {3.3}Why does this idea meet the objective}{6}{subsection.3.3}}
\BKM@entry{id=11,dest={73756273656374696F6E2E332E34},srcline={410}}{576861742074657374206E6565647320746F20626520746865726520746F20746573742069662069646561206D65657473206F626A65637469766573}
\BKM@entry{id=12,dest={73656374696F6E2E34},srcline={418}}{546573747320616E6420726573756C7473}
\@writefile{lof}{\defcounter {refsection}{0}\relax }\@writefile{lof}{\contentsline {figure}{\numberline {3}{\ignorespaces Sample figure 3 Image Source: \parencite {Parra2017}.\relax }}{7}{figure.caption.3}}
\newlabel{ch1fig1}{{3}{7}{Sample figure 3 Image Source: \parencite {Parra2017}.\relax }{figure.caption.3}{}}
\@writefile{toc}{\defcounter {refsection}{0}\relax }\@writefile{toc}{\contentsline {subsection}{\numberline {3.4}What test needs to be there to test if idea meets objectives}{7}{subsection.3.4}}
\BKM@entry{id=13,dest={73756273656374696F6E2E342E31},srcline={419}}{54657374207365747570}
\BKM@entry{id=14,dest={73756273656374696F6E2E342E32},srcline={427}}{526573756C7473}
\citation{Parra2017}
\abx@aux@segm{0}{0}{Parra2017}
\citation{Parra2017}
\abx@aux@segm{0}{0}{Parra2017}
\citation{Parra2017}
\abx@aux@segm{0}{0}{Parra2017}
\citation{Parra2017}
\abx@aux@segm{0}{0}{Parra2017}
\citation{Parra2017}
\abx@aux@segm{0}{0}{Parra2017}
\citation{Parra2017}
\abx@aux@segm{0}{0}{Parra2017}
\citation{Parra2017}
\abx@aux@segm{0}{0}{Parra2017}
\citation{Parra2017}
\abx@aux@segm{0}{0}{Parra2017}
\citation{Parra2017}
\abx@aux@segm{0}{0}{Parra2017}
\citation{Parra2017}
\abx@aux@segm{0}{0}{Parra2017}
\citation{Parra2017}
\abx@aux@segm{0}{0}{Parra2017}
\citation{Parra2017}
\abx@aux@segm{0}{0}{Parra2017}
\BKM@entry{id=15,dest={73756273656374696F6E2E342E33},srcline={476}}{4576616C756174696F6E206F6620726573756C7473}
\BKM@entry{id=16,dest={73656374696F6E2E35},srcline={486}}{53756D6D617279}
\BKM@entry{id=17,dest={73756273656374696F6E2E352E31},srcline={487}}{53756D6D617279206F6620776F726B}
\@writefile{toc}{\defcounter {refsection}{0}\relax }\@writefile{toc}{\contentsline {section}{\numberline {4}Tests and results}{8}{section.4}}
\@writefile{toc}{\defcounter {refsection}{0}\relax }\@writefile{toc}{\contentsline {subsection}{\numberline {4.1}Test setup}{8}{subsection.4.1}}
\@writefile{toc}{\defcounter {refsection}{0}\relax }\@writefile{toc}{\contentsline {subsection}{\numberline {4.2}Results}{8}{subsection.4.2}}
\@writefile{toc}{\defcounter {refsection}{0}\relax }\@writefile{toc}{\contentsline {subsection}{\numberline {4.3}Evaluation of results}{8}{subsection.4.3}}
\@writefile{lof}{\defcounter {refsection}{0}\relax }\@writefile{lof}{\contentsline {figure}{\numberline {4}{\ignorespaces Sample figure 4 Image Source: \parencite {Parra2017}.\relax }}{9}{figure.caption.4}}
\newlabel{ch1fig1}{{4}{9}{Sample figure 4 Image Source: \parencite {Parra2017}.\relax }{figure.caption.4}{}}
\@writefile{lof}{\defcounter {refsection}{0}\relax }\@writefile{lof}{\contentsline {figure}{\numberline {5}{\ignorespaces Sample figure 5 Image Source: \parencite {Parra2017}.\relax }}{9}{figure.caption.5}}
\newlabel{ch1fig1}{{5}{9}{Sample figure 5 Image Source: \parencite {Parra2017}.\relax }{figure.caption.5}{}}
\@writefile{lof}{\defcounter {refsection}{0}\relax }\@writefile{lof}{\contentsline {figure}{\numberline {6}{\ignorespaces Sample figure 6 Image Source: \parencite {Parra2017}.\relax }}{10}{figure.caption.6}}
\newlabel{ch1fig1}{{6}{10}{Sample figure 6 Image Source: \parencite {Parra2017}.\relax }{figure.caption.6}{}}
\@writefile{lof}{\defcounter {refsection}{0}\relax }\@writefile{lof}{\contentsline {figure}{\numberline {7}{\ignorespaces Sample figure 7 Image Source: \parencite {Parra2017}.\relax }}{10}{figure.caption.7}}
\newlabel{ch1fig1}{{7}{10}{Sample figure 7 Image Source: \parencite {Parra2017}.\relax }{figure.caption.7}{}}
\@writefile{toc}{\defcounter {refsection}{0}\relax }\@writefile{toc}{\contentsline {section}{\numberline {5}Summary}{10}{section.5}}
\@writefile{toc}{\defcounter {refsection}{0}\relax }\@writefile{toc}{\contentsline {subsection}{\numberline {5.1}Summary of work}{10}{subsection.5.1}}
\@writefile{lof}{\defcounter {refsection}{0}\relax }\@writefile{lof}{\contentsline {figure}{\numberline {8}{\ignorespaces Sample figure 8 Image Source: \parencite {Parra2017}.\relax }}{11}{figure.caption.8}}
\newlabel{ch1fig1}{{8}{11}{Sample figure 8 Image Source: \parencite {Parra2017}.\relax }{figure.caption.8}{}}
\@writefile{lof}{\defcounter {refsection}{0}\relax }\@writefile{lof}{\contentsline {figure}{\numberline {9}{\ignorespaces Sample figure 9 Image Source: \parencite {Parra2017}.\relax }}{11}{figure.caption.9}}
\newlabel{ch1fig1}{{9}{11}{Sample figure 9 Image Source: \parencite {Parra2017}.\relax }{figure.caption.9}{}}
\BKM@entry{id=18,dest={73756273656374696F6E2E352E32},srcline={495}}{54616B6520686F6D65206D657373616765}
\@writefile{toc}{\defcounter {refsection}{0}\relax }\@writefile{toc}{\contentsline {subsection}{\numberline {5.2}Take home message}{12}{subsection.5.2}}
